1998,b'said',0.23156703470042952
1998,b'like',0.199186465666448
1998,b'just',0.19116793358705508
1998,b'people',0.1730879313188698
1998,b'know',0.16869561438366096
1998,b'time',0.16665267627426147
1998,b'did',0.16639730901058655
1998,b'think',0.1528117705830801
1998,b'new',0.14903233508069108
1998,b'says',0.11706035366858944
1998,b'right',0.11552815008653983
1998,b'years',0.11077831898218607
1998,b'going',0.11057402517124612
1998,b'mr',0.10853108706184666
1998,b'way',0.10807142598723178
1998,b'year',0.1060795613305673
1998,b'good',0.09852069032578928
1998,b'say',0.09622238495271487
1998,b'make',0.09514984244528016
1998,b'want',0.0872845307240922
1998,b'does',0.08534373952016272
1998,b've',0.08406690320178804
1998,b'president',0.08360724212717317
1998,b'day',0.08136001020683375
1998,b'little',0.07824452958999957
1998,b'work',0.07783594196811967
1998,b'll',0.07538441623684032
1998,b'got',0.07303503741103093
1998,b'life',0.07293289050556095
1998,b'long',0.07114531965983642
1998,b'man',0.07053243822701659
1998,b'world',0.06935774881411189
1998,b'house',0.06884701428676203
1998,b'old',0.0677744717793273
1998,b'really',0.06757017796838735
1998,b'come',0.06757017796838735
1998,b'let',0.0647100646152281
1998,b'state',0.06292249376950357
1998,b'look',0.06215639197847877
1998,b'home',0.05939842553078949
1998,b'children',0.05924520517258453
1998,b'high',0.05914305826711456
1998,b'things',0.05847910338155973
1998,b'american',0.0570490467049801
1998,b'place',0.05434215371002581
1998,b'white',0.05418893335182085
1998,b'school',0.05372927227720597
1998,b'use',0.05204384833695141
1998,b'women',0.05097130582951669
1998,b'used',0.05071593856584176
