2012,b'said',0.24284166226022444
2012,b'like',0.20613691385743418
2012,b'just',0.1826192151402119
2012,b'know',0.18114340813568985
2012,b'did',0.17100318581429644
2012,b'time',0.16695661822125213
2012,b'people',0.15914912310055485
2012,b'new',0.1443910530553344
2012,b'years',0.1151129463527196
2012,b'going',0.11492251964245868
2012,b'think',0.11106637875967527
2012,b'right',0.11101877208211004
2012,b'says',0.10140222321393413
2012,b'way',0.09887906930297709
2012,b'year',0.098022149106803
2012,b'obama',0.0956684938877374
2012,b'good',0.09264259454193231
2012,b'make',0.08778671343027913
2012,b'say',0.08545398622958299
2012,b'school',0.08102656521601685
2012,b'want',0.07888426472558163
2012,b'president',0.07593265071653753
2012,b'does',0.07550419061845048
2012,b'students',0.07388556358123276
2012,b'day',0.0735999235158414
2012,b've',0.0732666767728848
2012,b'long',0.07217172318888458
2012,b'work',0.07055309615166686
2012,b'got',0.07045788279653639
2012,b'really',0.06883925575931867
2012,b'little',0.06755387546505753
2012,b'life',0.06660174191375298
2012,b'children',0.06660174191375298
2012,b'look',0.06531636161949185
2012,b'll',0.0648879015214048
2012,b'state',0.06365012790470889
2012,b'man',0.061888680834795484
2012,b'high',0.061888680834795484
2012,b'10',0.06041287383027344
2012,b'world',0.05979398702192548
2012,b'need',0.05907988685844707
2012,b'use',0.057794506564185937
2012,b'old',0.05760407985392502
2012,b'come',0.057508866498794574
2012,b'health',0.057128013078272755
2012,b'home',0.05684237301288139
2012,b'things',0.05450964581218525
2012,b'used',0.05279580541983707
2012,b'let',0.05270059206470661
2012,b'study',0.052462558676880475
