1991,b'said',0.24681310174049903
1991,b'mr',0.20632271464109814
1991,b'like',0.17097638929897963
1991,b'people',0.17056893886275923
1991,b'new',0.15982243360744655
1991,b'time',0.15635910489957325
1991,b'did',0.15274298227811733
1991,b'think',0.1476498518253625
1991,b'just',0.14107971354130877
1991,b'know',0.12121650477556493
1991,b'years',0.11388239692359799
1991,b'going',0.10960416734328392
1991,b'says',0.10934951082064619
1991,b'year',0.10395079254072606
1991,b'way',0.10048746383285279
1991,b'right',0.10013094470115994
1991,b'say',0.09330614989446848
1991,b'good',0.083323614207069
1991,b'world',0.08220312550746295
1991,b'make',0.08169381246218746
1991,b'war',0.07894352201769986
1991,b'state',0.07756837679545604
1991,b've',0.0745634298283307
1991,b'come',0.0745634298283307
1991,b'does',0.0742578420011654
1991,b'll',0.07400318547852766
1991,b'day',0.07354480373777973
1991,b'work',0.07349387243325219
1991,b'long',0.07191500199289819
1991,b'man',0.07155848286120535
1991,b'american',0.07145662025215026
1991,b'president',0.07120196372951251
1991,b'want',0.06916471154841058
1991,b'little',0.06565045153600975
1991,b'states',0.0654976576224271
1991,b'life',0.06442810022734859
1991,b'government',0.06203432891455382
1991,b'got',0.061677809782860984
1991,b'school',0.05974242021081415
1991,b'old',0.05933496977459376
1991,b'king',0.05908031325195602
1991,b'high',0.05750144281160202
1991,b'united',0.05729771759349183
1991,b'home',0.05658467933010615
1991,b'let',0.055362328021444994
1991,b'country',0.0550567401942797
1991,b'today',0.054954877585224604
1991,b'look',0.05475115236711441
1991,b'voice',0.05429277062636648
1991,b'women',0.05307041931770532
