1997,b'said',0.22650179451209487
1997,b'like',0.1999598497471342
1997,b'just',0.18094865518334294
1997,b'did',0.17373388051508976
1997,b'time',0.17199601508405066
1997,b'people',0.16299071239593899
1997,b'new',0.16125284696489992
1997,b'know',0.15772445351400236
1997,b'think',0.13428960148938432
1997,b'years',0.11812218672183883
1997,b'going',0.11211865159643106
1997,b'says',0.11043344875421134
1997,b'year',0.10885357108963034
1997,b'right',0.10743168119150745
1997,b'way',0.10695771789213315
1997,b'mr',0.10032223170089298
1997,b'good',0.09479265987485952
1997,b'make',0.09305479444382042
1997,b'say',0.08968438875938098
1997,b'want',0.08763054779542569
1997,b'day',0.0828909148016827
1997,b'work',0.08246961409112778
1997,b've',0.07862524510731403
1997,b'life',0.07672939190981684
1997,b'little',0.07599211566634571
1997,b'does',0.07420158764648725
1997,b'world',0.07356963658065485
1997,b'got',0.0722530718601707
1997,b'll',0.07062053160677034
1997,b'man',0.0700412431297573
1997,b'long',0.06977793018566048
1997,b'old',0.06851402805399569
1997,b'come',0.06698681297823406
1997,b'really',0.06524894754719497
1997,b'school',0.06456433389254321
1997,b'children',0.06335309434969777
1997,b'home',0.06303711881678158
1997,b'high',0.06293179363914285
1997,b'look',0.060719964908729454
1997,b'american',0.060719964908729454
1997,b'things',0.05950872536588403
1997,b'state',0.05950872536588403
1997,b'let',0.0584554735894967
1997,b'family',0.05750754699074811
1997,b'use',0.05629630744790268
1997,b'house',0.05603299450380585
1997,b'women',0.05355785282929563
1997,b'used',0.05303122694110196
1997,b'percent',0.05292590176346323
1997,b'president',0.05192531257589527
