2003,b'said',0.2338055338405072
2003,b'like',0.20598588913525787
2003,b'just',0.18007445110654186
2003,b'time',0.169177586664233
2003,b'did',0.1595361213512224
2003,b'people',0.15677424326676623
2003,b'know',0.15245567026198023
2003,b'new',0.15069811148096265
2003,b'says',0.13312252367078709
2003,b'think',0.12508796924327822
2003,b'years',0.11368894514925007
2003,b'going',0.10796432511965003
2003,b'qwq',0.10776367440071455
2003,b'right',0.107261301607243
2003,b'year',0.10424834369692719
2003,b'way',0.10123538578661137
2003,b'mr',0.09510903803563588
2003,b'say',0.0909913288915376
2003,b'good',0.08973592976223935
2003,b'make',0.08938441800603583
2003,b'day',0.08411174166298316
2003,b'world',0.08175159129990243
2003,b'want',0.07984338462336908
2003,b'does',0.07828668970303924
2003,b'work',0.07708150653891292
2003,b've',0.07607718723547431
2003,b'little',0.07416898055894097
2003,b'long',0.0732148772206743
2003,b'll',0.07070407896207778
2003,b'life',0.07005127141484269
2003,b'really',0.06859500842485672
2003,b'got',0.06829371263382512
2003,b'high',0.06804263280796548
2003,b'war',0.06779155298210583
2003,b'american',0.06638550595729178
2003,b'old',0.06513010682799353
2003,b'come',0.0634227640121479
2003,b'man',0.06317168418628824
2003,b'state',0.06271974049974087
2003,b'home',0.0617656371614742
2003,b'look',0.061263477509754895
2003,b'school',0.05789900784323557
2003,b'president',0.056693824679109245
2003,b'use',0.05599080116670222
2003,b'qwq qwq',0.05475378091315367
2003,b'states',0.052927627291214474
2003,b'family',0.052927627291214474
2003,b'used',0.05282719536087062
2003,b'things',0.05252589956983903
2003,b'need',0.05187309202260394
