2009,b'said',0.24179493894866524
2009,b'like',0.2062749875912053
2009,b'just',0.18522228649466702
2009,b'know',0.17251807031572147
2009,b'did',0.1676437996184934
2009,b'people',0.1669696983518555
2009,b'time',0.1655696418749921
2009,b'new',0.1500653127423198
2009,b'think',0.13098306150210776
2009,b'going',0.13010154446111968
2009,b'right',0.12289384630245263
2009,b'says',0.11091558533373257
2009,b'way',0.10847844998511853
2009,b'years',0.10614502252367955
2009,b'year',0.09904103225218756
2009,b'make',0.09437417732930961
2009,b'good',0.09323339057038389
2009,b'say',0.08587013058095425
2009,b'obama',0.08490666269022855
2009,b'want',0.08125512960166383
2009,b'work',0.07814389298641186
2009,b'day',0.07689939834031108
2009,b'br',0.07689514148394605
2009,b'does',0.07612158918649808
2009,b'got',0.07290664468407106
2009,b've',0.07275108285330846
2009,b'long',0.07233625130460819
2009,b'really',0.07129917243285754
2009,b'mr',0.07010653173034428
2009,b'world',0.06995096989958169
2009,b'little',0.06777310426890532
2009,b'life',0.06777310426890532
2009,b'look',0.06632119384845439
2009,b'come',0.06533596892029127
2009,b'president',0.06357293483831516
2009,b'old',0.06326181117678996
2009,b'health',0.06227658624862684
2009,b'll',0.061965462587101644
2009,b'house',0.061706192869163984
2009,b'need',0.06155063103840138
2009,b'man',0.06149877709481385
2009,b'state',0.06129136132046372
2009,b'home',0.06113579948970112
2009,b'school',0.06092838371535099
2009,b'use',0.05885422597184968
2009,b'high',0.05843939442314942
2009,b'things',0.05812827076162422
2009,b'students',0.055742989356597716
2009,b'let',0.05543186569507252
2009,b'american',0.05403180921820913
