york --> city
city --> york
season --> last
last --> season
new --> city
city --> new
week --> last
last --> week
people --> said
said, york --> new
new, york --> said
new, said --> york
new --> said, york
general --> said
york --> said
would --> said
said --> would
year --> last
last --> year
knapp --> basketball
basketball --> knapp
manager --> general
general --> manager
one --> said
york --> new
new --> york
new --> jersey
jersey --> new
new --> said
could --> said
new, york --> city
city, york --> new
city, new --> york
new --> city, york
york --> city, new
city --> new, york
like --> said
