people --> said
stanley --> morgan
morgan --> stanley
united --> states
states --> united
performing --> arts
arts --> performing
year --> last
last --> year
would --> said
said --> would
york --> new
new --> york
center --> arts
arts --> center
new --> said
like --> said
