people --> said
president --> said
years --> ago
ago --> years
years --> said
like --> would
time --> said
united --> states
states --> united
years --> two
two --> years
school --> high
high --> school
get --> said
year --> million
million --> year
year --> last
last --> year
going --> said
would --> said
york --> new
new --> york
like --> said
could --> said
director --> said
week --> last
last --> week
