years --> ago
ago --> years
united --> states
states --> united
year --> last
last --> year
make --> said
los --> angeles
angeles --> los
years --> said
school --> high
high --> school
state --> said
police --> said
president --> obama
obama --> president
york --> new
new --> york
week --> last
last --> week
school --> said
time --> said
also --> said
officials --> said
new --> one
could --> said
people --> said
would --> last
last --> would
years --> two
two --> years
would --> said
president --> said
